hyperparameter-tuning
…
library(dials)
rf_grid <- grid_regular(
  mtry(range = c(1, 5)),
  min_n(range = c(2, 10)),
  levels = 5
)
rf_grid

# A tibble: 25 × 2
    mtry min_n
   <int> <int>
 1     1     2
 2     2     2
 3     3     2
 4     4     2
 5     5     2
 6     1     4
 7     2     4
 8     3     4
 9     4     4
10     5     4
# ℹ 15 more rows
…
[[2]]

Minimal Node Size (quantitative)

Range: [2, 40]

dials <- extract_parameter_set_dials(rf_workflow)

dials <- finalize(dials, camels_train)

my.grid <- grid_space_filling(dials, size = 25)

my.grid

# A tibble: 25 × 2
    mtry min_n
   <int> <int>
 1     1    24
 2     1    13
 3     1    33
 4     1     5
 5     1    19
 6     2    27
 7     2    36
 8     2    11
 9     2     3
10     2    21
# ℹ 15 more rows
…
##I can see six different graphs, one shows the rmse, rsq, and mae with randomly selected predictors and minimal node size as the x-axis. mae and rmse are failry similar with no outliers which is what we’re looking for. proving that the model was a good choice because of less outliers and consistancy.

model_params %>% collect_metrics()

# A tibble: 75 × 8
    mtry min_n .metric .estimator  mean     n std_err .config              
   <int> <int> <chr>   <chr>      <dbl> <int>   <dbl> <chr>                
 1     1    24 mae     standard   0.326    10  0.0174 Preprocessor1_Model01
 2     1    24 rmse    standard   0.503    10  0.0425 Preprocessor1_Model01
 3     1    24 rsq     standard   0.904    10  0.0102 Preprocessor1_Model01
 4     1    13 mae     standard   0.325    10  0.0169 Preprocessor1_Model02
 5     1    13 rmse    standard   0.507    10  0.0424 Preprocessor1_Model02
 6     1    13 rsq     standard   0.904    10  0.0104 Preprocessor1_Model02
 7     1    33 mae     standard   0.328    10  0.0181 Preprocessor1_Model03
 8     1    33 rmse    standard   0.508    10  0.0422 Preprocessor1_Model03
 9     1    33 rsq     standard   0.901    10  0.0106 Preprocessor1_Model03
10     1     5 mae     standard   0.325    10  0.0176 Preprocessor1_Model04
# ℹ 65 more rows
…
final_metrics <- collect_metrics(final_fit)
final_metrics

# A tibble: 2 × 4
  .metric .estimator .estimate .config             
  <chr>   <chr>          <dbl> <chr>               
1 rmse    standard       0.396 Preprocessor1_Model1
2 rsq     standard       0.922 Preprocessor1_Model1

##the results show a dinal rmse of 0.401 and a rsq of 0.920. Lower rmse means that the predicted values are close to actual values and a high rsq means that 92% of varablitly in the test data, these are great results showing a strong model choice.

final_predictions <- collect_predictions(final_fit)
final_predictions

# A tibble: 134 × 5
   .pred id                .row q_mean .config             
   <dbl> <chr>            <int>  <dbl> <chr>               
 1  1.71 train/test split     1  1.70  Preprocessor1_Model1
 2  1.81 train/test split     3  1.82  Preprocessor1_Model1
 3  2.06 train/test split     9  1.82  Preprocessor1_Model1
 4  1.96 train/test split    15  2.08  Preprocessor1_Model1
 5  1.77 train/test split    18  1.81  Preprocessor1_Model1
 6  2.13 train/test split    22  2.24  Preprocessor1_Model1
 7  2.13 train/test split    35  1.81  Preprocessor1_Model1
 8  1.71 train/test split    42  1.76  Preprocessor1_Model1
 9  1.13 train/test split    43  0.853 Preprocessor1_Model1
10  1.24 train/test split    44  0.997 Preprocessor1_Model1
# ℹ 124 more rows
…
